locale;BUKRS;RANK;RANK_T
ko;1100;10;사원
ko;1100;20;대리
ko;1100;30;과장
ko;1100;40;부장
ko;1100;50;이사
ko;1100;60;상무
ko;1100;70;전무
ko;1100;80;부사장
ko;1100;90;사장
en;1100;10;사원
en;1100;20;대리
en;1100;30;과장
en;1100;40;부장
en;1100;50;이사
en;1100;60;상무
en;1100;70;전무
en;1100;80;부사장
en;1100;90;사장

